%YAML 1.1
%TAG !u! tag:unity3d.com,2011:
--- !u!1001 &8138519649833454012
PrefabInstance:
  m_ObjectHideFlags: 0
  serializedVersion: 2
  m_Modification:
    m_TransformParent: {fileID: 0}
    m_Modifications:
    - target: {fileID: 1800231724804676531, guid: da1c345efa362436a98108e534b65b0c,
        type: 3}
      propertyPath: m_LocalPosition.x
      value: 794.6128
      objectReference: {fileID: 0}
    - target: {fileID: 1800231724804676531, guid: da1c345efa362436a98108e534b65b0c,
        type: 3}
      propertyPath: m_LocalPosition.y
      value: 434.27036
      objectReference: {fileID: 0}
    - target: {fileID: 1800231724804676531, guid: da1c345efa362436a98108e534b65b0c,
        type: 3}
      propertyPath: m_LocalPosition.z
      value: -10.567544
      objectReference: {fileID: 0}
    - target: {fileID: 1800231724804676531, guid: da1c345efa362436a98108e534b65b0c,
        type: 3}
      propertyPath: m_LocalRotation.x
      value: 0
      objectReference: {fileID: 0}
    - target: {fileID: 1800231724804676531, guid: da1c345efa362436a98108e534b65b0c,
        type: 3}
      propertyPath: m_LocalRotation.y
      value: 0
      objectReference: {fileID: 0}
    - target: {fileID: 1800231724804676531, guid: da1c345efa362436a98108e534b65b0c,
        type: 3}
      propertyPath: m_LocalRotation.z
      value: 0
      objectReference: {fileID: 0}
    - target: {fileID: 1800231724804676531, guid: da1c345efa362436a98108e534b65b0c,
        type: 3}
      propertyPath: m_LocalRotation.w
      value: 1
      objectReference: {fileID: 0}
    - target: {fileID: 1800231724804676531, guid: da1c345efa362436a98108e534b65b0c,
        type: 3}
      propertyPath: m_RootOrder
      value: 0
      objectReference: {fileID: 0}
    - target: {fileID: 1800231724804676531, guid: da1c345efa362436a98108e534b65b0c,
        type: 3}
      propertyPath: m_LocalEulerAnglesHint.x
      value: 0
      objectReference: {fileID: 0}
    - target: {fileID: 1800231724804676531, guid: da1c345efa362436a98108e534b65b0c,
        type: 3}
      propertyPath: m_LocalEulerAnglesHint.y
      value: 0
      objectReference: {fileID: 0}
    - target: {fileID: 1800231724804676531, guid: da1c345efa362436a98108e534b65b0c,
        type: 3}
      propertyPath: m_LocalEulerAnglesHint.z
      value: 0
      objectReference: {fileID: 0}
    - target: {fileID: 1800231724804676540, guid: da1c345efa362436a98108e534b65b0c,
        type: 3}
      propertyPath: m_audioClip
      value: 
      objectReference: {fileID: 8300000, guid: 26e66d1d6fb6f4d7e8e83bc39dff1ee2, type: 3}
    - target: {fileID: 1800231724804676540, guid: da1c345efa362436a98108e534b65b0c,
        type: 3}
      propertyPath: Loop
      value: 0
      objectReference: {fileID: 0}
    - target: {fileID: 1800231724804676540, guid: da1c345efa362436a98108e534b65b0c,
        type: 3}
      propertyPath: m_Volume
      value: 0.488
      objectReference: {fileID: 0}
    - target: {fileID: 1800231724804676541, guid: da1c345efa362436a98108e534b65b0c,
        type: 3}
      propertyPath: m_Name
      value: AudioManagerLose
      objectReference: {fileID: 0}
    m_RemovedComponents: []
  m_SourcePrefab: {fileID: 100100000, guid: da1c345efa362436a98108e534b65b0c, type: 3}
